Random Forests and Gradient Boosting Machines in R
…
<img src="figures/spam-tree-diagram-1.svg" width="70%" style="display: block; margin: auto;" />

---

# Predicting email spam (single tree)

.pull-left[

```r
vi(spam_tree)
```

```
## # A tibble: 46 x 2
##    Variable        Importance
##    <chr>                <dbl>
##  1 charExclamation      505  
##  2 capitalLong          247  
##  3 free                 198  
##  4 charDollar           195  
##  5 capitalAve           191  
##  6 your                 180  
##  7 remove               177  
##  8 all                  126  
##  9 capitalTotal         103  
## 10 hp                    71.0
## # ... with 36 more rows
```
…
---

# Ames housing data

```r
# Variable importance scores
vi(ames_xgb, pred.var = colnames(X), type = "Gain")
```

```
## # A tibble: 78 x 2
##    Variable       Importance
##    <chr>               <dbl>
##  1 Overall_Qual      0.620  
##  2 Gr_Liv_Area       0.0960 
##  3 Garage_Cars       0.0479 
##  4 Total_Bsmt_SF     0.0344 
##  5 First_Flr_SF      0.0225 
##  6 Bsmt_Qual         0.0192 
##  7 Year_Remod_Add    0.0137 
##  8 Lot_Area          0.0131 
##  9 Second_Flr_SF     0.00986
## 10 Kitchen_Qual      0.00887
## # ... with 68 more rows
```
…
